…
``` r
dplyr::tbl(con,"dictionary") %>% 
    dplyr::collect()
```

    ## # A tibble: 152 × 4
    ##    table field             description                                     type 
    ##    <chr> <chr>             <chr>                                           <chr>
    ##  1 drug  atc_concept_id    The ATC 5th level OMOP concept identifier.      int  
    ##  2 drug  atc_concept_name  The ATC 5th level OMOP concept name. In the ad… char…
    ##  3 drug  atc_concept_code  The ATC 5th level OMOP concept code.            char…
    ##  4 drug  ndrugreports      The number of reports of the drug in Pediatric… int  
    ##  5 drug  atc4_concept_name The ATC 4th level OMOP concept name.            char…
    ##  6 drug  atc4_concept_code The ATC 4th level OMOP concept code.            char…
    ##  7 drug  atc3_concept_name The ATC 3rd level OMOP concept name.            char…
    ##  8 drug  atc3_concept_code The ATC 3rd level OMOP concept code.            char…
    ##  9 drug  atc2_concept_name The ATC 2nd level OMOP concept name.            char…
    ## 10 drug  atc2_concept_code The ATC 2nd level OMOP concept code.            char…
    ## # … with 142 more rows

``` r
dplyr::tbl(con,"ade_nichd") %>% 
    dplyr::collect()
```

    ## # A tibble: 3,225,859 × 13
    ##    atc_concept_id meddra_concept_id ade       nichd gam_score  norm gam_score_se
    ##             <int>             <int> <chr>     <chr>     <dbl> <dbl>        <dbl>
    ##  1        1588648          35809076 1588648_… term…    -0.131 0             2.48
    ##  2        1588648          35809076 1588648_… infa…     0.947 0.166         1.98
    ##  3        1588648          35809076 1588648_… todd…     2.03  0.332         1.79
    ##  4        1588648          35809076 1588648_… earl…     3.11  0.499         1.86
    ##  5        1588648          35809076 1588648_… midd…     4.21  0.667         2.10
    ##  6        1588648          35809076 1588648_… earl…     5.30  0.834         2.52
    ##  7        1588648          35809076 1588648_… late…     6.38  1             3.14
    ##  8        1588648          36315755 1588648_… term…    -0.310 0             5.61
    ##  9        1588648          36315755 1588648_… infa…     2.25  0.166         4.43
    ## 10        1588648          36315755 1588648_… todd…     4.81  0.332         3.79
    ## # … with 3,225,849 more rows, and 6 more variables: gam_score_90mse <dbl>,
    ## #   gam_score_90pse <dbl>, D <int>, E <int>, DE <int>, ade_name <chr>

``` r
dplyr::tbl(con,"ade") %>% 
    dplyr::collect()
```

    ## # A tibble: 460,823 × 9
    ##    ade    atc_concept_id meddra_concept_… cluster_id gt_null_statist… gt_null_99
    ##    <chr>           <int>            <int> <chr>                 <dbl>      <dbl>
    ##  1 15886…        1588648         35809076 2                         1          0
    ##  2 15886…        1588648         36315755 2                         1          1
    ##  3 15886…        1588648         36416514 2                         1          0
    ##  4 15886…        1588648         37019318 2                         1          0
    ##  5 15886…        1588648         37019399 2                         1          1
    ##  6 15886…        1588648         37522220 2                         1          0
    ##  7 15886…        1588697         35104746 4                         0          0
    ##  8 15886…        1588697         35104812 2                         0          0
    ##  9 15886…        1588697         35104824 2                         0          0
    ## 10 15886…        1588697         35104834 4                         0          0
    ## # … with 460,813 more rows, and 3 more variables: max_score_nichd <chr>,
    ## #   cluster_name <chr>, ade_nreports <chr>

``` r
dplyr::tbl(con,"ade_raw") %>% 
    dplyr::collect()
```

    ## # A tibble: 2,326,383 × 23
    ##    safetyreportid ade               atc_concept_id meddra_concept_id nichd sex  
    ##    <chr>          <chr>                      <int>             <int> <chr> <chr>
    ##  1 10003357       21602735_36717998       21602735          36717998 midd… Male 
    ##  2 10003357       21602735_42890355       21602735          42890355 midd… Male 
    ##  3 10003357       21602735_36718024       21602735          36718024 midd… Male 
    ##  4 10003357       21603927_36717998       21603927          36717998 midd… Male 
    ##  5 10003357       21603927_42890355       21603927          42890355 midd… Male 
    ##  6 10003357       21603927_36718024       21603927          36718024 midd… Male 
    ##  7 10003388       21600449_35205038       21600449          35205038 late… Fema…
    ##  8 10003388       21600449_35205040       21600449          35205040 late… Fema…
    ##  9 10003388       21600449_35809225       21600449          35809225 late… Fema…
    ## 10 10003401       21600449_36110708       21600449          36110708 earl… Fema…
    ## # … with 2,326,373 more rows, and 17 more variables:
    ## #   reporter_qualification <chr>, receive_date <chr>, XA <dbl>, XB <dbl>,
    ## #   XC <dbl>, XD <dbl>, XG <dbl>, XH <dbl>, XJ <dbl>, XL <dbl>, XM <dbl>,
    ## #   XN <dbl>, XP <dbl>, XR <dbl>, XS <dbl>, XV <dbl>, polypharmacy <int>
…
