Drugs and Drug Classes • PDSdatabase
…
drug_tbl

## # A tibble: 5,440 × 3
##    atc_concept_id atc_class         value                                       
##             <int> <chr>             <chr>                                       
##  1        1588648 atc1_concept_name CARDIOVASCULAR SYSTEM                       
##  2        1588648 atc2_concept_name AGENTS ACTING ON THE RENIN-ANGIOTENSIN SYST…
##  3        1588648 atc3_concept_name ANGIOTENSIN II RECEPTOR BLOCKERS (ARBs), CO…
##  4        1588648 atc4_concept_name Angiotensin II receptor blockers (ARBs), ot…
##  5        1588648 atc5_concept_name valsartan and sacubitril                    
##  6        1588697 atc1_concept_name RESPIRATORY SYSTEM                          
##  7        1588697 atc2_concept_name OTHER RESPIRATORY SYSTEM PRODUCTS           
##  8        1588697 atc3_concept_name OTHER RESPIRATORY SYSTEM PRODUCTS           
##  9        1588697 atc4_concept_name Other respiratory system products           
## 10        1588697 atc5_concept_name ivacaftor and lumacaftor                    
## # … with 5,430 more rows
…
